<?xml version="1.0" encoding="UTF-8"?>
<svg width="168px" height="50px" viewBox="0 0 168 50" version="1.1" xmlns="http://www.w3.org/2000/svg" xmlns:xlink="http://www.w3.org/1999/xlink">
    <!-- Generator: Sketch 52.2 (67145) - http://www.bohemiancoding.com/sketch -->
    <title>google-play-badge-purple</title>
    <desc>Created with Sketch.</desc>
    <defs>
        <linearGradient x1="91.488428%" y1="4.9481245%" x2="-38.3517333%" y2="71.9074222%" id="linearGradient-1">
            <stop stop-color="#00A0FF" offset="0%"></stop>
            <stop stop-color="#00A1FF" offset="1%"></stop>
            <stop stop-color="#00BEFF" offset="26%"></stop>
            <stop stop-color="#00D2FF" offset="51%"></stop>
            <stop stop-color="#00DFFF" offset="76%"></stop>
            <stop stop-color="#00E3FF" offset="100%"></stop>
        </linearGradient>
        <linearGradient x1="107.684729%" y1="50%" x2="-130.640394%" y2="50%" id="linearGradient-2">
            <stop stop-color="#FFE000" offset="0%"></stop>
            <stop stop-color="#FFBD00" offset="41%"></stop>
            <stop stop-color="#FFA500" offset="78%"></stop>
            <stop stop-color="#FF9C00" offset="100%"></stop>
        </linearGradient>
        <linearGradient x1="86.219293%" y1="17.8768889%" x2="-50.1497903%" y2="194.702638%" id="linearGradient-3">
            <stop stop-color="#FF3A44" offset="0%"></stop>
            <stop stop-color="#C31162" offset="100%"></stop>
        </linearGradient>
        <linearGradient x1="-18.7537448%" y1="-54.0521474%" x2="42.1210306%" y2="24.9170664%" id="linearGradient-4">
            <stop stop-color="#32A071" offset="0%"></stop>
            <stop stop-color="#2DA771" offset="7%"></stop>
            <stop stop-color="#15CF74" offset="48%"></stop>
            <stop stop-color="#06E775" offset="80%"></stop>
            <stop stop-color="#00F076" offset="100%"></stop>
        </linearGradient>
    </defs>
    <g id="03-Landing-page" stroke="none" stroke-width="1" fill="none" fill-rule="evenodd">
        <g id="landing-page-v9" transform="translate(-310.000000, -2837.000000)" fill-rule="nonzero">
            <g id="devices" transform="translate(0.000000, 2553.000000)">
                <g id="text" transform="translate(151.000000, 131.000000)">
                    <g id="buttons" transform="translate(0.000000, 153.000000)">
                        <g id="google-play-badge-purple" transform="translate(159.148289, 0.000000)">
                            <rect id="Background-Black" fill="#251C45" x="0" y="0" width="167.851711" height="49.7338403" rx="5"></rect>
                            <path d="M84.721597,27.0427757 C81.806479,27.056494 79.4531345,29.4283602 79.4622693,32.3434962 C79.4714041,35.2586321 81.8395672,37.6157031 84.7547139,37.6111518 C87.6698606,37.6066005 90.0306521,35.2421465 90.0306844,32.3269962 C90.051166,30.9150199 89.4975769,29.555217 88.4967127,28.5590407 C87.4958484,27.5628643 86.1334616,27.0156653 84.721597,27.0427757 Z M84.721597,35.5348289 C83.4076629,35.6267187 82.1710877,34.9060856 81.6033117,33.7176005 C81.0355357,32.5291154 81.2519602,31.1143395 82.1490716,30.1499446 C83.0461831,29.1855498 84.4416425,28.8675505 85.6680168,29.3480424 C86.8943911,29.8285344 87.7024181,31.0098568 87.7056274,32.3269962 C87.7460893,33.1509267 87.4520254,33.9562678 86.8901669,34.5602658 C86.3283083,35.1642637 85.5462986,35.5157017 84.721597,35.5348289 Z M73.1460456,27.0427757 C70.2292796,27.0496387 67.8696924,29.4184951 67.874265,32.3352657 C67.8788377,35.2520362 70.2458406,37.6134828 73.1626138,37.6112005 C76.0793871,37.6089182 78.4426915,35.2437703 78.4426996,32.3269962 C78.4631812,30.9150199 77.9095921,29.555217 76.9087279,28.5590407 C75.9078636,27.5628643 74.5454768,27.0156653 73.1336122,27.0427757 L73.1460456,27.0427757 Z M73.1460456,35.5348289 C71.8314257,35.6319007 70.591245,34.9148609 70.0194677,33.7271239 C69.4476904,32.5393869 69.6607264,31.1227677 70.5565455,30.1557329 C71.4523647,29.188698 72.8485845,28.8681289 74.0765084,29.347557 C75.3044323,29.8269851 76.1140636,31.0088021 76.1176426,32.3269962 C76.1581045,33.1509267 75.8640407,33.9562678 75.3021821,34.5602658 C74.7403235,35.1642637 73.9583138,35.5157017 73.1336122,35.5348289 L73.1460456,35.5348289 Z M59.3573384,28.6715589 L59.3573384,30.9095817 L64.7285932,30.9095817 C64.6443732,31.9636952 64.2061947,32.9583604 63.4852471,33.7319772 C62.3985912,34.8388344 60.8947895,35.434936 59.3449049,35.3731939 C56.048836,35.3731939 53.3768441,32.7012021 53.3768441,29.4051331 C53.3768441,26.1090641 56.048836,23.4370722 59.3449049,23.4370722 C60.8590464,23.4123779 62.3211793,23.9891827 63.4106464,25.0409886 L64.9896958,23.4619392 C63.5037973,21.9573141 61.4719199,21.1185479 59.3573384,21.1368821 C56.3471489,21.0197329 53.5141015,22.5588619 51.9741683,25.1479873 C50.4342352,27.7371127 50.4342352,30.9612523 51.9741683,33.5503777 C53.5141015,36.1395031 56.3471489,37.6786322 59.3573384,37.5614829 C61.5105215,37.6587801 63.600556,36.8200461 65.0891635,35.2612928 C66.391787,33.830104 67.0872741,31.9487221 67.0287833,30.0143726 C67.0327954,29.5431298 66.9911561,29.0726062 66.9044487,28.6093916 L59.3573384,28.6715589 Z M115.693346,30.4122433 C115.029498,28.459208 113.228944,27.1186857 111.167567,27.0427757 C109.792878,27.0400879 108.478389,27.6065181 107.536225,28.6075683 C106.59406,29.6086185 106.108262,30.9549926 106.194183,32.3269962 C106.163647,33.731102 106.705402,35.0872596 107.694966,36.0838583 C108.68453,37.080457 110.036816,37.631805 111.441103,37.6112167 C113.207721,37.6207395 114.861104,36.7426718 115.842548,35.2737262 L114.039696,34.0303802 C113.492308,34.9429243 112.505228,35.5002229 111.441103,35.4975285 C110.33899,35.5395351 109.323238,34.9034576 108.87981,33.8936122 L115.954449,30.971749 L115.693346,30.4122433 Z M108.481939,32.1777947 C108.431027,31.4009077 108.694956,30.6362259 109.214229,30.056138 C109.733501,29.4760502 110.464405,29.1293859 111.242167,29.0942966 C112.061992,29.0402752 112.834976,29.4805825 113.206654,30.213308 L108.481939,32.1777947 Z M102.737681,37.3003802 L105.062738,37.3003802 L105.062738,21.7585551 L102.737681,21.7585551 L102.737681,37.3003802 Z M98.9330418,28.2239544 L98.8460076,28.2239544 C98.1372533,27.4315411 97.1240445,26.9792158 96.0609125,26.9806084 C93.2386997,27.1174655 91.020807,29.4455165 91.020807,32.2710456 C91.020807,35.0965748 93.2386997,37.4246257 96.0609125,37.5614829 C97.1274907,37.5794166 98.147267,37.1241593 98.8460076,36.3181369 L98.9206084,36.3181369 L98.9206084,37.0765779 C98.9206084,39.1032319 97.8388973,40.184943 96.0982129,40.184943 C94.9124376,40.1571883 93.8610954,39.4153534 93.4374525,38.3074905 L91.4107985,39.1529658 C92.1912239,41.0513201 94.0457357,42.2860216 96.0982129,42.2737643 C98.8211407,42.2737643 101.071597,40.6698479 101.071597,36.7657414 L101.071597,27.3536122 L98.9330418,27.3536122 L98.9330418,28.2239544 Z M96.2722814,35.5348289 C94.609788,35.3883127 93.3347227,33.9959334 93.3347227,32.3269962 C93.3347227,30.658059 94.609788,29.2656796 96.2722814,29.1191635 C97.0756316,29.1603898 97.8283114,29.5242085 98.3596726,30.1281344 C98.8910337,30.7320603 99.1560645,31.5249347 99.0946768,32.3269962 C99.1632284,33.1327458 98.8990456,33.9314486 98.3635524,34.5374014 C97.8280592,35.1433543 97.0679115,35.5037624 96.2598479,35.5348289 L96.2722814,35.5348289 Z M126.585057,21.7585551 L121.0273,21.7585551 L121.0273,37.3003802 L123.352357,37.3003802 L123.352357,31.4069202 L126.59749,31.4069202 C128.403679,31.5366805 130.131048,30.6466252 131.073698,29.1004797 C132.016348,27.5543342 132.016348,25.6111411 131.073698,24.0649956 C130.131048,22.5188501 128.403679,21.6287948 126.59749,21.7585551 L126.585057,21.7585551 Z M126.585057,29.2186312 L123.339924,29.2186312 L123.339924,23.9219772 L126.634791,23.9219772 C128.107722,23.9219772 129.301768,25.1160235 129.301768,26.5889544 C129.301768,28.0618852 128.107722,29.2559316 126.634791,29.2559316 L126.585057,29.2186312 Z M140.920837,26.9806084 C139.190985,26.8772104 137.564656,27.8100296 136.780494,29.3553992 L138.844449,30.213308 C139.260231,29.4469943 140.089193,28.9983794 140.958137,29.0694297 C141.554356,28.9997956 142.153556,29.1725902 142.621147,29.5490009 C143.088738,29.9254116 143.385519,30.4738821 143.444829,31.0712167 L143.444829,31.2328517 C142.698066,30.8374665 141.865273,30.6324712 141.020304,30.6360456 C138.794715,30.6360456 136.544259,31.8793916 136.544259,34.1298479 C136.588631,35.0992957 137.023246,36.0095751 137.749224,36.6535884 C138.475203,37.2976016 139.430808,37.6205824 140.398631,37.5490494 C141.591285,37.6346949 142.735586,37.0625445 143.382662,36.0570342 L143.457262,36.0570342 L143.457262,37.3003802 L145.695285,37.3003802 L145.695285,31.3198859 C145.695285,28.5969582 143.631331,27.0179087 140.983004,27.0179087 L140.920837,26.9806084 Z M140.634867,35.4975285 C139.876426,35.4975285 138.819582,35.1120913 138.819582,34.1795817 C138.819582,32.9362357 140.137529,32.5259316 141.306274,32.5259316 C142.044873,32.5077065 142.774828,32.6880482 143.419962,33.0481369 C143.259192,34.4399571 142.097693,35.5006873 140.697034,35.5348289 L140.634867,35.4975285 Z M153.851635,27.3536122 L151.190875,34.0925475 L151.116274,34.0925475 L148.356046,27.3536122 L145.869354,27.3536122 L150.009696,36.7781749 L147.647338,42.0126616 L150.071863,42.0126616 L156.437795,27.3536122 L153.851635,27.3536122 Z M132.950989,37.3003802 L135.276046,37.3003802 L135.276046,21.7585551 L132.950989,21.7585551 L132.950989,37.3003802 Z" id="Google-Play" fill="#FFFFFF"></path>
                            <path d="M58.9594677,12.7318631 C59.002181,13.6534698 58.6651274,14.5522794 58.0269582,15.2185551 C57.3138368,15.9593447 56.3192023,16.3617195 55.291597,16.3251331 C53.7154573,16.3127975 52.3002907,15.3568353 51.7004305,13.8992564 C51.1005703,12.4416776 51.4329168,10.766534 52.5438023,9.64836502 C53.2656057,8.91146613 54.2603395,8.50637089 55.291597,8.52935361 C55.817231,8.52760227 56.3376686,8.63338228 56.8209125,8.84019011 C57.2708229,9.02166089 57.6713414,9.30713686 57.9896578,9.67323194 L57.3306844,10.3322053 C56.8275605,9.73375361 56.0722751,9.40677029 55.291597,9.44942966 C54.5068583,9.4455801 53.7544226,9.7616185 53.2077938,10.3246696 C52.6611651,10.8877207 52.367531,11.649179 52.3946008,12.4334601 C52.3779423,13.6186047 53.0759252,14.6973936 54.1637992,15.1678991 C55.2516732,15.6384046 56.5157862,15.4082222 57.3679848,14.5844487 C57.7505742,14.1698383 57.9712351,13.6314256 57.9896578,13.0675665 L55.291597,13.0675665 L55.291597,12.1723574 L58.9097338,12.1723574 C58.9428978,12.3570119 58.9595415,12.5442542 58.9594677,12.7318631 Z M64.6539924,9.6234981 L61.2969582,9.6234981 L61.2969582,11.9858555 L64.3555894,11.9858555 L64.3555894,12.8810646 L61.2969582,12.8810646 L61.2969582,15.2434221 L64.6539924,15.2434221 L64.6539924,16.1634981 L60.3022814,16.1634981 L60.3022814,8.70342205 L64.6539924,8.70342205 L64.6539924,9.6234981 Z M68.7321673,16.1634981 L67.7747909,16.1634981 L67.7747909,9.6234981 L65.6859696,9.6234981 L65.6859696,8.70342205 L70.8707224,8.70342205 L70.8707224,9.6234981 L68.7321673,9.6234981 L68.7321673,16.1634981 Z M74.5261597,16.1634981 L74.5261597,8.70342205 L75.4835361,8.70342205 L75.4835361,16.1634981 L74.5261597,16.1634981 Z M79.7357795,16.1634981 L78.778403,16.1634981 L78.778403,9.6234981 L76.6895817,9.6234981 L76.6895817,8.70342205 L81.8121673,8.70342205 L81.8121673,9.6234981 L79.7357795,9.6234981 L79.7357795,16.1634981 Z M91.5226996,15.1936882 C90.0095349,16.6984202 87.5651419,16.6984202 86.0519772,15.1936882 C84.5851633,13.6410398 84.5851633,11.2134469 86.0519772,9.66079848 C86.7756026,8.93188277 87.7602299,8.52193453 88.7873384,8.52193453 C89.8144469,8.52193453 90.7990742,8.93188277 91.5226996,9.66079848 C92.9957731,11.2109524 92.9957731,13.6435343 91.5226996,15.1936882 Z M86.7606844,14.5720152 C87.8813419,15.6879992 89.6933349,15.6879992 90.8139924,14.5720152 C91.9146002,13.3587223 91.9146002,11.5081979 90.8139924,10.2949049 C89.6933349,9.178921 87.8813419,9.178921 86.7606844,10.2949049 C85.6600766,11.5081979 85.6600766,13.3587223 86.7606844,14.5720152 Z M93.9720913,16.1634981 L93.9720913,8.70342205 L95.1408365,8.70342205 L98.7714068,14.5098479 L98.7714068,8.70342205 L99.7287833,8.70342205 L99.7287833,16.1634981 L98.7341065,16.1634981 L94.9419011,10.0835361 L94.9419011,16.1634981 L93.9720913,16.1634981 Z" id="GET-IT-ON" stroke="#FFFFFF" stroke-width="0.2" fill="#FFFFFF"></path>
                            <g id="Icon" transform="translate(11.190114, 8.703422)">
                                <path d="M1.79041825,0.671406844 C1.38516822,1.15768983 1.18062374,1.7802165 1.21847909,2.41209125 L1.21847909,29.9149049 C1.18062374,30.5467797 1.38516822,31.1693064 1.79041825,31.6555894 L1.87745247,31.7426236 L17.2825095,16.35 L17.2825095,15.9894297 L1.87745247,0.584372624 L1.79041825,0.671406844 Z" id="Shape" fill="url(#linearGradient-1)"></path>
                                <path d="M22.3802281,21.485019 L17.2825095,16.35 L17.2825095,15.9894297 L22.3802281,10.8419772 L22.4921293,10.9041445 L28.5969582,14.3730798 C30.3376426,15.3553232 30.3376426,16.971673 28.5969582,17.9663498 L22.5169962,21.4228517 L22.3802281,21.485019 Z" id="Shape" fill="url(#linearGradient-2)"></path>
                                <path d="M22.5294297,21.4104183 L17.2825095,16.1634981 L1.79041825,31.6555894 C2.52239809,32.2990488 3.60872346,32.3303851 4.37657795,31.7301901 L22.5418631,21.4104183" id="Shape" fill="url(#linearGradient-3)"></path>
                                <path d="M22.5294297,10.9165779 L4.36414449,0.596806084 C3.59629,-0.00338887519 2.50996463,0.0279474336 1.77798479,0.671406844 L17.2825095,16.1634981 L22.5294297,10.9165779 Z" id="Shape" fill="url(#linearGradient-4)"></path>
                                <path d="M22.3802281,21.2985171 L4.36414449,31.5561217 C3.62688822,32.1073423 2.61470874,32.1073423 1.87745247,31.5561217 L1.79041825,31.6431559 L1.87745247,31.7301901 C2.61332157,32.285567 3.62827539,32.285567 4.36414449,31.7301901 L22.5294297,21.4104183 L22.3802281,21.2985171 Z" id="Shape" fill="#000000" opacity="0.2"></path>
                                <path d="M1.79041825,31.4815209 C1.38516822,30.9952379 1.18062374,30.3727113 1.21847909,29.7408365 L1.21847909,29.9273384 C1.18062374,30.5592132 1.38516822,31.1817398 1.79041825,31.6680228 L1.87745247,31.5809886 L1.79041825,31.4815209 Z M28.5969582,17.7798479 L22.3802281,21.2985171 L22.4921293,21.4104183 L28.5969582,17.9539163 C29.3020225,17.6227054 29.7762326,16.9398429 29.8403042,16.1634981 C29.6985994,16.8657871 29.2394025,17.4627431 28.5969582,17.7798479 Z" id="Shape" fill="#000000" opacity="0.12"></path>
                                <path d="M4.36414449,0.770874525 L28.5969582,14.5471483 C29.2394025,14.8642531 29.6985994,15.4612091 29.8403042,16.1634981 C29.7762326,15.3871533 29.3020225,14.7042908 28.5969582,14.3730798 L4.36414449,0.596806084 C2.62346008,-0.385437262 1.20604563,0.435171103 1.20604563,2.42452471 L1.20604563,2.61102662 C1.24334601,0.609239544 2.63589354,-0.211368821 4.36414449,0.770874525 Z" id="Shape" fill="#FFFFFF" opacity="0.25"></path>
                            </g>
                        </g>
                    </g>
                </g>
            </g>
        </g>
    </g>
</svg>