<?xml version="1.0" encoding="UTF-8"?>
<svg width="2151px" height="599px" viewBox="0 0 2151 599" version="1.1" xmlns="http://www.w3.org/2000/svg" xmlns:xlink="http://www.w3.org/1999/xlink">
    <!-- Generator: Sketch 48.2 (47327) - http://www.bohemiancoding.com/sketch -->
    <title>10 Outlined</title>
    <desc>Created with Sketch.</desc>
    <defs>
        <radialGradient cx="49.990143%" cy="49.9938202%" fx="49.990143%" fy="49.9938202%" r="50.0008682%" id="radialGradient-1">
            <stop stop-color="#F0FFFF" offset="0%"></stop>
            <stop stop-color="#CDF0FF" offset="95.32%"></stop>
            <stop stop-color="#CBEFFF" offset="100%"></stop>
        </radialGradient>
        <linearGradient x1="-0.0220792079%" y1="49.975%" x2="99.9819802%" y2="49.975%" id="linearGradient-2">
            <stop stop-color="#55B5FF" offset="0%"></stop>
            <stop stop-color="#4DACFF" offset="12.09%"></stop>
            <stop stop-color="#3992FF" offset="32.19%"></stop>
            <stop stop-color="#1869FF" offset="57.67%"></stop>
            <stop stop-color="#1565FF" offset="59.95%"></stop>
            <stop stop-color="#0050E9" offset="99.44%"></stop>
        </linearGradient>
        <linearGradient x1="-0.08407281%" y1="50.1072727%" x2="99.9792947%" y2="50.1072727%" id="linearGradient-3">
            <stop stop-color="#7FD9FF" offset="0%"></stop>
            <stop stop-color="#76D1FE" offset="17.93%"></stop>
            <stop stop-color="#5CBBFA" offset="47.73%"></stop>
            <stop stop-color="#3397F4" offset="85.51%"></stop>
            <stop stop-color="#2288F2" offset="99.47%"></stop>
        </linearGradient>
        <linearGradient x1="109.868949%" y1="23.9759867%" x2="-38.6345337%" y2="79.2701356%" id="linearGradient-4">
            <stop stop-color="#55B5FF" offset="0%"></stop>
            <stop stop-color="#4DACFF" offset="12.09%"></stop>
            <stop stop-color="#3992FF" offset="32.19%"></stop>
            <stop stop-color="#1869FF" offset="57.67%"></stop>
            <stop stop-color="#1565FF" offset="59.95%"></stop>
            <stop stop-color="#0050E9" offset="99.44%"></stop>
        </linearGradient>
    </defs>
    <g id="Artboard-5" stroke="none" stroke-width="1" fill="none" fill-rule="evenodd" transform="translate(-532.000000, -276.000000)">
        <g id="10-Outlined" transform="translate(530.000000, 274.000000)">
            <g id="Group">
                <g id="Shape">
                    <g transform="translate(0.000000, 12.000000)">
                        <path d="M267,576.6 L15,324.6 C-1.2,308.4 -1.2,282 15,265.5 L267,13.5 C283.2,-2.7 309.6,-2.7 326.1,13.5 L578.1,265.5 C594.3,281.7 594.3,308.1 578.1,324.6 L326.1,576.6 C309.6,592.8 283.2,592.8 267,576.6 Z" fill="url(#radialGradient-1)" fill-rule="nonzero"></path>
                        <g transform="translate(165.000000, 252.000000)">
                            <polygon fill="url(#linearGradient-2)" fill-rule="nonzero" points="141 85.2 141.3 85.2 1.8 224.1 83.7 306.3 304.8 84.3"></polygon>
                            <g transform="translate(39.000000, 0.000000)">
                                <polygon points="83.7 2.4 85.8 0.6"></polygon>
                                <path d="M134.7,2.4 L84,2.4 L2.1,84.9 L102,84.9 L265.8,84.3 L218.7,37.2 C196.2,15 166.2,2.4 134.7,2.4 Z" fill="url(#linearGradient-3)" fill-rule="nonzero"></path>
                            </g>
                        </g>
                    </g>
                    <path d="M446.1,109.8 L465.9,129.6 C468.3,132 472.2,129.9 471.6,126.6 L454.8,32.1 C453.6,25.5 448.5,20.4 441.9,19.2 L348.6,2.4 C345,1.8 342.6,6.3 345.3,8.7 L364.5,27.9 L164.4,227.4 C142.8,249 142.8,284.1 164.4,305.4 L207.6,348.3 L289.5,265.8 L291.3,264 L446.1,109.8 Z" fill="url(#linearGradient-4)" fill-rule="nonzero"></path>
                </g>
            </g>
            <path d="M854.984,248.058 C850.063975,242.481972 843.504041,237.972017 835.304,234.528 C827.103959,231.083983 817.756052,229.362 807.26,229.362 C791.843923,229.362 780.610035,232.272971 773.558,238.095 C766.505965,243.917029 762.98,251.82995 762.98,261.834 C762.98,267.082026 763.922991,271.386983 765.809,274.749 C767.695009,278.111017 770.60598,281.021988 774.542,283.482 C778.47802,285.942012 783.520969,288.073991 789.671,289.878 C795.821031,291.682009 803.077958,293.485991 811.442,295.29 C820.790047,297.25801 829.194963,299.471988 836.657,301.932 C844.119037,304.392012 850.473974,307.466982 855.722,311.157 C860.970026,314.847018 864.987986,319.315974 867.776,324.564 C870.564014,329.812026 871.958,336.371961 871.958,344.244 C871.958,352.28004 870.400016,359.24997 867.284,365.154 C864.167984,371.05803 859.822028,375.97798 854.246,379.914 C848.669972,383.85002 842.028039,386.760991 834.32,388.647 C826.611961,390.533009 818.166046,391.476 808.982,391.476 C781.921865,391.476 758.552098,383.030084 738.872,366.138 L747.482,352.116 C750.598016,355.396016 754.328978,358.511985 758.675,361.464 C763.021022,364.416015 767.858973,366.998989 773.189,369.213 C778.519027,371.427011 784.21797,373.148994 790.286,374.379 C796.35403,375.609006 802.749966,376.224 809.474,376.224 C823.41407,376.224 834.278961,373.723025 842.069,368.721 C849.859039,363.718975 853.754,356.134051 853.754,345.966 C853.754,340.553973 852.647011,336.003018 850.433,332.313 C848.218989,328.622982 844.898022,325.425014 840.47,322.719 C836.041978,320.012986 830.548033,317.67601 823.988,315.708 C817.427967,313.73999 809.802043,311.77201 801.11,309.804 C791.925954,307.671989 783.890034,305.458011 777.002,303.162 C770.113966,300.865989 764.292024,297.996017 759.536,294.552 C754.779976,291.107983 751.213012,286.967024 748.835,282.129 C746.456988,277.290976 745.268,271.346035 745.268,264.294 C745.268,256.25796 746.784985,249.083032 749.819,242.769 C752.853015,236.454968 757.157972,231.207021 762.734,227.025 C768.310028,222.842979 774.869962,219.645011 782.414,217.431 C789.958038,215.216989 798.321954,214.11 807.506,214.11 C819.150058,214.11 829.522954,215.872982 838.625,219.399 C847.727046,222.925018 855.967963,227.885968 863.348,234.282 L854.984,248.058 Z M987.932,391.23 C975.795939,391.23 964.68505,388.729025 954.599,383.727 C944.512949,378.724975 935.862036,372.083041 928.646,363.801 C921.429964,355.518959 915.854019,346.048053 911.918,335.388 C907.98198,324.727947 906.014,313.822056 906.014,302.67 C906.014,291.025942 908.104979,279.874053 912.287,269.214 C916.469021,258.553947 922.249963,249.124041 929.63,240.924 C937.010037,232.723959 945.70195,226.205024 955.706,221.367 C965.71005,216.528976 976.533941,214.11 988.178,214.11 C1000.31406,214.11 1011.42495,216.692974 1021.511,221.859 C1031.59705,227.025026 1040.20696,233.789958 1047.341,242.154 C1054.47504,250.518042 1060.00998,259.988947 1063.946,270.567 C1067.88202,281.145053 1069.85,291.927945 1069.85,302.916 C1069.85,314.560058 1067.75902,325.711947 1063.577,336.372 C1059.39498,347.032053 1053.65504,356.420959 1046.357,364.539 C1039.05896,372.657041 1030.40805,379.134976 1020.404,383.973 C1010.39995,388.811024 999.576058,391.23 987.932,391.23 Z M923.234,302.67 C923.234,312.182048 924.791984,321.324956 927.908,330.099 C931.024015,338.873044 935.451971,346.662966 941.192,353.469 C946.932028,360.275034 953.73796,365.68698 961.61,369.705 C969.482039,373.72302 978.255951,375.732 987.932,375.732 C997.772049,375.732 1006.70996,373.600021 1014.746,369.336 C1022.78204,365.071979 1029.58797,359.496034 1035.164,352.608 C1040.74003,345.719966 1045.04498,337.930043 1048.079,329.238 C1051.11301,320.545957 1052.63,311.690045 1052.63,302.67 C1052.63,293.157952 1051.03102,284.015044 1047.833,275.241 C1044.63498,266.466956 1040.16603,258.718034 1034.426,251.994 C1028.68597,245.269966 1021.88004,239.89902 1014.008,235.881 C1006.13596,231.86298 997.444047,229.854 987.932,229.854 C978.09195,229.854 969.15404,231.944979 961.118,236.127 C953.081959,240.309021 946.276028,245.843966 940.7,252.732 C935.123972,259.620034 930.819015,267.409957 927.785,276.102 C924.750984,284.794043 923.234,293.649955 923.234,302.67 Z M1117.682,390 L1117.682,215.34 L1232.318,215.34 L1232.318,230.592 L1134.902,230.592 L1134.902,294.798 L1217.066,294.798 L1217.066,309.066 L1134.902,309.066 L1134.902,390 L1117.682,390 Z M1401.92,230.592 L1339.682,230.592 L1339.682,390 L1322.462,390 L1322.462,230.592 L1260.224,230.592 L1260.224,215.34 L1401.92,215.34 L1401.92,230.592 Z" id="SOFTONIX" fill="#2D8FFC"></path>
            <path d="M1513.22,391.23 C1500.91994,391.23 1489.72705,388.729025 1479.641,383.727 C1469.55495,378.724975 1460.90403,372.083041 1453.688,363.801 C1446.47196,355.518959 1440.89602,346.048053 1436.96,335.388 C1433.02398,324.727947 1431.056,313.822056 1431.056,302.67 C1431.056,291.025942 1433.14698,279.874053 1437.329,269.214 C1441.51102,258.553947 1447.29196,249.124041 1454.672,240.924 C1462.05204,232.723959 1470.78495,226.205024 1480.871,221.367 C1490.95705,216.528976 1501.90394,214.11 1513.712,214.11 C1526.01206,214.11 1537.16395,216.692974 1547.168,221.859 C1557.17205,227.025026 1565.78196,233.789958 1572.998,242.154 C1580.21403,250.518042 1585.78998,259.988947 1589.726,270.567 C1593.66202,281.145053 1595.63,291.927945 1595.63,302.916 C1595.63,314.560058 1593.53902,325.711947 1589.357,336.372 C1585.17498,347.032053 1579.43504,356.420959 1572.137,364.539 C1564.83896,372.657041 1556.14705,379.134976 1546.061,383.973 C1535.97495,388.811024 1525.02806,391.23 1513.22,391.23 Z" id="Path" fill="#283147"></path>
            <path d="M1453.442,302.67 C1453.442,311.526044 1454.87698,320.094959 1457.747,328.377 C1460.61701,336.659041 1464.67597,343.997968 1469.924,350.394 C1475.17202,356.790032 1481.48596,361.873981 1488.866,365.646 C1496.24604,369.418019 1504.44595,371.304 1513.466,371.304 C1522.81405,371.304 1531.17796,369.29502 1538.558,365.277 C1545.93804,361.25898 1552.21097,356.011032 1557.377,349.533 C1562.54302,343.054968 1566.47899,335.716041 1569.185,327.516 C1571.89101,319.315959 1573.244,311.034042 1573.244,302.67 C1573.244,293.813956 1571.80901,285.245041 1568.939,276.963 C1566.06898,268.680959 1561.96903,261.383032 1556.639,255.069 C1551.30897,248.754968 1544.99504,243.712019 1537.697,239.94 C1530.39896,236.167981 1522.32204,234.282 1513.466,234.282 C1504.11795,234.282 1495.75404,236.24998 1488.374,240.186 C1480.99396,244.12202 1474.72102,249.287968 1469.555,255.684 C1464.38897,262.080032 1460.41201,269.377959 1457.624,277.578 C1454.83598,285.778041 1453.442,294.141957 1453.442,302.67 Z" id="Path" fill="#FFFFFF"></path>
            <polygon id="Path" fill="#283147" points="1694.6 256.668 1694.6 390 1672.46 390 1672.46 215.34 1689.68 215.34 1797.92 351.378 1797.92 215.586 1820.06 215.586 1820.06 390 1801.364 390"></polygon>
            <polygon id="Path" fill="#283147" points="1907.95999 390 1907.95999 215.34 1930.09999 215.34 1930.09999 390"></polygon>
            <polygon id="Path" fill="#283147" points="2022.42799 215.34 2075.56399 288.156 2128.69999 215.34 2153.05399 215.34 2087.37199 303.9 2151.08599 390 2126.73199 390 2075.56399 319.644 2024.39599 390 1999.79599 390 2063.50999 303.9 1997.82799 215.34"></polygon>
        </g>
    </g>
</svg>