<?xml version="1.0" encoding="UTF-8"?>
<svg width="24px" height="24px" viewBox="0 0 24 24" version="1.1" xmlns="http://www.w3.org/2000/svg" xmlns:xlink="http://www.w3.org/1999/xlink">
    <!-- Generator: Sketch 52.2 (67145) - http://www.bohemiancoding.com/sketch -->
    <title>icon / expanded / arrow-down</title>
    <desc>Created with Sketch.</desc>
    <g id="icon-/-expanded-/-arrow-down" stroke="none" stroke-width="1" fill="none" fill-rule="evenodd">
        <g id="arrow-down" transform="translate(5.000000, 8.000000)" fill="#000000" fill-rule="nonzero">
            <path d="M1.53033009,7.09084957 C1.23743687,7.38374279 0.762563133,7.38374279 0.469669914,7.09084957 C0.176776695,6.79795635 0.176776695,6.32308262 0.469669914,6.0301894 L5.71983977,0.780019596 C6.42698534,0.0733268013 7.57301466,0.0733268013 8.28033009,0.780189401 L13.5303301,6.0301894 C13.8232233,6.32308262 13.8232233,6.79795635 13.5303301,7.09084957 C13.2374369,7.38374279 12.7625631,7.38374279 12.4696699,7.09084957 L7.21983977,1.84101938 C7.09840285,1.71966021 6.90159715,1.71966021 6.78033009,1.84084957 L1.53033009,7.09084957 Z" id="Shape" transform="translate(7.000000, 3.780270) scale(1, -1) translate(-7.000000, -3.780270) "></path>
        </g>
    </g>
</svg>