<?xml version="1.0" encoding="UTF-8"?>
<svg width="24px" height="24px" viewBox="0 0 24 24" version="1.1" xmlns="http://www.w3.org/2000/svg" xmlns:xlink="http://www.w3.org/1999/xlink">
    <!-- Generator: Sketch 52.2 (67145) - http://www.bohemiancoding.com/sketch -->
    <title>icon / expanded / atom</title>
    <desc>Created with Sketch.</desc>
    <g id="icon-/-expanded-/-atom" stroke="none" stroke-width="1" fill="none" fill-rule="evenodd">
        <g id="atom" transform="translate(1.000000, 0.000000)" fill="#000000">
            <path d="M11,22.246 C10.572,22.246 9.901,21.537 9.312,19.97 C8.733,20.265 8.23,20.497 7.741,20.708 C8.508,22.7 9.599,24 11,24 C12.44,24 13.552,22.629 14.322,20.548 C13.837,20.347 13.325,20.118 12.741,19.829 C12.142,21.496 11.443,22.246 11,22.246 Z M6.291,20.03 C3.192,21.169 0.001,21.198 0.001,18.386 C0.001,17.447 0.436,16.129 1.797,14.304 C2.378,13.525 3.051,12.759 3.734,12.056 C5.265,10.501 6.99,9.006 9.239,7.457 C8.156,6.861 6.975,6.29 5.823,5.867 C4.643,5.432 3.604,5.191 2.808,5.191 C2.3,5.191 1.922,5.298 1.799,5.479 C1.666,5.671 1.661,6.263 2.244,7.322 L2.454,7.309 C3.501,7.309 4.352,8.175 4.352,9.242 C4.352,10.309 3.501,11.173 2.454,11.173 C1.406,11.173 0.557,10.309 0.557,9.242 C0.557,8.896 0.646,8.572 0.802,8.291 C0.212,7.251 0,6.431 0,5.788 C0,4.273 1.154,3.434 2.808,3.434 C5.322,3.434 8.708,5.096 10.89,6.38 C13.104,5.017 16.607,3.221 19.194,3.221 C21.087,3.221 22.001,4.275 22.001,5.616 C22.001,6.555 21.565,7.872 20.205,9.696 C17.121,13.833 10.989,18.302 6.291,20.03 Z M21.208,15.725 C21.35,15.455 21.428,15.149 21.428,14.823 C21.428,13.755 20.579,12.89 19.531,12.89 C18.483,12.89 17.634,13.755 17.634,14.823 C17.634,15.889 18.483,16.753 19.531,16.753 L19.789,16.736 C20.341,17.76 20.333,18.333 20.204,18.523 C20.08,18.704 19.703,18.81 19.194,18.81 C17.592,18.81 15.361,17.866 13.924,17.153 C13.444,17.495 12.849,17.901 12.267,18.272 C14.192,19.308 17.024,20.567 19.194,20.567 C20.834,20.567 22.002,19.737 22.002,18.213 C22.002,17.575 21.791,16.758 21.208,15.725 Z M8.374,15.844 L8.373,15.844 L8.36,15.834 C7.216,15.024 6.088,14.134 5.043,13.203 C2.226,16.08 1.432,18.166 1.805,18.727 C1.931,18.916 2.297,19.026 2.808,19.026 C5.158,19.026 8.888,17.008 11.095,15.561 C13.804,13.786 16.895,11.233 18.831,8.635 C20.337,6.617 20.383,5.554 20.197,5.274 C20.071,5.084 19.706,4.976 19.194,4.976 C17.242,4.976 14.27,6.435 12.558,7.423 C13.821,8.259 15.001,9.142 16.078,10.039 C15.67,10.454 15.244,10.858 14.808,11.25 C13.612,10.268 12.284,9.304 10.907,8.44 C9.326,9.476 7.734,10.694 6.304,11.992 C7.379,12.943 8.66,13.941 10.025,14.865 C9.503,15.196 8.976,15.512 8.374,15.844 Z M11,10 C12.104,10 13,10.896 13,12 C13,13.104 12.104,14 11,14 C9.896,14 9,13.104 9,12 C9,10.896 9.896,10 11,10 Z M9.261,4.172 C8.681,3.887 8.166,3.654 7.68,3.454 C8.45,1.372 9.562,0 11,0 C12.403,0 13.495,1.302 14.261,3.292 C13.771,3.504 13.265,3.739 12.689,4.031 C12.102,2.464 11.431,1.756 11,1.756 C10.559,1.756 9.861,2.506 9.261,4.172 Z" id="Shape"></path>
        </g>
    </g>
</svg>