<?xml version="1.0" encoding="UTF-8"?>
<svg width="24px" height="24px" viewBox="0 0 24 24" version="1.1" xmlns="http://www.w3.org/2000/svg" xmlns:xlink="http://www.w3.org/1999/xlink">
    <!-- Generator: Sketch 51.2 (57519) - http://www.bohemiancoding.com/sketch -->
    <title>icon / expanded / balloon</title>
    <desc>Created with Sketch.</desc>
    <defs></defs>
    <g id="icon-/-expanded-/-balloon" stroke="none" stroke-width="1" fill="none" fill-rule="evenodd">
        <g id="balloon" transform="translate(4.500000, 0.000000)" fill="#000000" fill-rule="nonzero">
            <path d="M8.25,17.7833333 L8.25,21.6333333 C8.25,21.6983864 8.30161356,21.75 8.36666667,21.75 C8.43126852,21.75 8.48333333,21.6979711 8.48333333,21.6333333 C8.48333333,21.2191198 8.81911977,20.8833333 9.23333333,20.8833333 C9.6475469,20.8833333 9.98333333,21.2191198 9.98333333,21.6333333 C9.98333333,22.5266303 9.25946376,23.25 8.36666667,23.25 C7.47318644,23.25 6.75,22.5268136 6.75,21.6333333 L6.75,17.7833333 L5.76666667,17.7833333 C5.18369581,17.7833333 4.82361094,17.1473549 5.12354697,16.6474615 L6.04514823,15.1114594 C5.06675812,14.4808255 4.21076904,13.8375264 3.33657987,13.0029551 C1.67103878,11.4128955 0.683333333,9.72342858 0.683333333,7.93333333 C0.683333333,3.69208333 3.54880952,0.683333333 7.5,0.683333333 C11.4511905,0.683333333 14.3166667,3.69208333 14.3166667,7.93333333 C14.3166667,9.72342858 13.3289612,11.4128955 11.6634201,13.0029551 C10.789231,13.8375264 9.93324188,14.4808255 8.95485177,15.1114594 L9.87645303,16.6474615 C10.1763891,17.1473549 9.81630419,17.7833333 9.23333333,17.7833333 L8.25,17.7833333 Z M3.91666667,7.5 C3.91666667,5.52048023 5.52048023,3.91666667 7.5,3.91666667 C7.91421356,3.91666667 8.25,3.58088023 8.25,3.16666667 C8.25,2.7524531 7.91421356,2.41666667 7.5,2.41666667 C4.6920531,2.41666667 2.41666667,4.6920531 2.41666667,7.5 C2.41666667,7.91421356 2.7524531,8.25 3.16666667,8.25 C3.58088023,8.25 3.91666667,7.91421356 3.91666667,7.5 Z" id="Combined-Shape"></path>
        </g>
    </g>
</svg>