<?xml version="1.0" encoding="UTF-8"?>
<svg width="24px" height="24px" viewBox="0 0 24 24" version="1.1" xmlns="http://www.w3.org/2000/svg" xmlns:xlink="http://www.w3.org/1999/xlink">
    <!-- Generator: Sketch 51.3 (57544) - http://www.bohemiancoding.com/sketch -->
    <title>icon / expanded / fire</title>
    <desc>Created with Sketch.</desc>
    <defs></defs>
    <g id="icon-/-expanded-/-fire" stroke="none" stroke-width="1" fill="none" fill-rule="evenodd">
        <g id="fire" transform="translate(4.000000, -0.500000)" fill="#000000">
            <path d="M7.43156556,17.8552569 C8.18356556,17.2012569 8.75356556,16.3812569 9.20356556,15.2982569 C9.30456556,16.2732569 9.10256556,17.2522569 8.58156556,18.3422569 C8.56256556,18.3832569 8.56656556,18.4322569 8.59356556,18.4692569 C8.62056556,18.5062569 8.66756556,18.5252569 8.71056556,18.5202569 C9.82856556,18.3802569 11.3985656,15.9592569 11.6185656,14.4242569 C11.8615656,12.7372569 11.5015656,11.2292569 10.5205656,9.82425694 C11.8675656,10.1812569 13.7455656,11.7152569 14.2245656,14.0372569 C14.8205656,16.9242569 13.2535656,19.7462569 10.4975656,20.7462569 C7.92056556,21.6832569 5.33556556,20.5232569 4.38656556,19.3022569 C5.53356556,19.1022569 6.55656556,18.6152569 7.43156556,17.8552569 M16.3055656,12.7062569 C15.7885656,10.8192569 14.5825656,9.19325694 12.7225656,7.87325694 L12.5695656,7.76525694 C11.5725656,7.05925694 10.5405656,6.32825694 9.83856556,5.28225694 C8.97356556,3.99325694 8.80856556,2.74825694 9.33456556,1.47625694 C9.35856556,1.41825694 9.36456556,1.36025694 9.37056556,1.28725694 C9.37456556,1.24825694 9.37956556,1.20125694 9.38756556,1.14325694 C9.39456556,1.09425694 9.37256556,1.04625694 9.33156556,1.02025694 C9.28956556,0.99225694 9.23656556,0.99425694 9.19556556,1.02025694 C9.08056556,1.09525694 8.97256556,1.16525694 8.86756556,1.23125694 C8.64856556,1.37125694 8.44956556,1.49825694 8.25756556,1.63425694 C5.57256556,3.53225694 4.16456556,6.13825694 4.07456556,9.38025694 C4.03956556,10.6312569 4.12356556,11.7432569 4.33256556,12.7802569 C4.36256556,12.9322569 4.38356556,13.0852569 4.40356556,13.2392569 L4.40656556,13.2642569 C4.38756556,13.2452569 4.36756556,13.2262569 4.34856556,13.2072569 C4.20556556,13.0662569 4.05856556,12.9222569 3.93156556,12.7702569 C2.86456556,11.4882569 2.75056556,9.91325694 2.72556556,8.40825694 C2.72456556,8.35825694 2.69456556,8.31325694 2.64756556,8.29425694 C2.60156556,8.27625694 2.54856556,8.28725694 2.51256556,8.32225694 C1.63056556,9.20525694 0.988565562,10.2262569 0.548565562,11.4422569 C0.0325655621,12.8682569 -0.0164344379,14.3132569 0.00356556212,15.5392569 C0.0405655621,17.7662569 0.821565562,19.6962569 2.32456556,21.2752569 C3.64556556,22.6642569 5.28756556,23.5142569 7.20556556,23.8042569 C7.62356556,23.8672569 8.03756556,23.8982569 8.44556556,23.8982569 C9.79756556,23.8982569 11.0885656,23.5522569 12.2975656,22.8642569 C15.9195656,20.8012569 17.4555656,16.9092569 16.3055656,12.7062569" id="Fill-1"></path>
        </g>
    </g>
</svg>