<?xml version="1.0" encoding="UTF-8"?>
<svg width="24px" height="24px" viewBox="0 0 24 24" version="1.1" xmlns="http://www.w3.org/2000/svg" xmlns:xlink="http://www.w3.org/1999/xlink">
    <!-- Generator: Sketch 51.3 (57544) - http://www.bohemiancoding.com/sketch -->
    <title>icon / expanded / flare</title>
    <desc>Created with Sketch.</desc>
    <defs></defs>
    <g id="icon-/-expanded-/-flare" stroke="none" stroke-width="1" fill="none" fill-rule="evenodd">
        <g id="flare" transform="translate(2.000000, 0.000000)" fill="#000000" fill-rule="nonzero">
            <path d="M10.4972543,23.2787277 C10.4344412,23.8756217 9.56556401,23.8756252 9.50274614,23.2787317 C8.57812662,14.4930234 7.96620847,13.7374269 0.920781066,12.6068845 C0.359739645,12.5168571 0.359739645,11.7095429 0.920781066,11.6195155 C7.96620847,10.4889731 8.57812662,9.73337655 9.50274614,0.947668348 C9.56556401,0.350774813 10.4344412,0.350778294 10.4972543,0.947672333 C11.4213013,9.72861651 12.0330959,10.4881537 19.0678846,11.6176962 C19.1031302,11.6225119 19.1374175,11.631059 19.1702576,11.6429835 C19.2512283,11.6721994 19.3213836,11.7212535 19.3759239,11.7835115 C19.4348522,11.8494401 19.4779778,11.9360984 19.4936845,12.0339811 C19.4978694,12.060061 19.4999562,12.0859932 19.5000695,12.1116055 C19.5001469,12.1379813 19.4980651,12.1651191 19.4936845,12.1924189 C19.4886156,12.2240079 19.480691,12.2544278 19.4702165,12.2834576 C19.441861,12.361548 19.3944078,12.4314551 19.3326134,12.4866037 C19.2569259,12.5528666 19.1661278,12.5952804 19.0678846,12.6087038 C12.0330959,13.7382463 11.4213013,14.4977835 10.4972543,23.2787277 Z" id="Fill-1"></path>
        </g>
    </g>
</svg>