<?xml version="1.0" encoding="UTF-8"?>
<svg width="24px" height="24px" viewBox="0 0 24 24" version="1.1" xmlns="http://www.w3.org/2000/svg" xmlns:xlink="http://www.w3.org/1999/xlink">
    <!-- Generator: Sketch 51.2 (57519) - http://www.bohemiancoding.com/sketch -->
    <title>icon / expanded / listen-o</title>
    <desc>Created with Sketch.</desc>
    <defs></defs>
    <g id="icon-/-expanded-/-listen-o" stroke="none" stroke-width="1" fill="none" fill-rule="evenodd">
        <g id="listen-o" transform="translate(1.000000, 3.000000)" fill="#000000" fill-rule="nonzero">
            <path d="M12.457634,13.2903231 C12.1097884,13.5152148 11.645493,13.415541 11.4206013,13.0676953 C11.1957096,12.7198497 11.2953834,12.2555543 11.6432291,12.0306626 C12.7060383,11.3435274 13.3604735,10.1675443 13.3604735,8.87876614 C13.3604735,7.57789321 12.6935819,6.39230976 11.6144907,5.70847419 C11.2646155,5.48675323 11.1607259,5.02338294 11.3824469,4.6735077 C11.6041679,4.32363245 12.0675381,4.21974288 12.4174134,4.44146384 C13.9261252,5.39755615 14.8604735,7.05861768 14.8604735,8.87876614 C14.8604735,10.6819526 13.9435278,12.3296522 12.457634,13.2903231 Z" id="Oval-2"></path>
            <path d="M14.5689562,15.2903231 C14.2211106,15.5152148 13.7568152,15.415541 13.5319235,15.0676953 C13.3070318,14.7198497 13.4067057,14.2555543 13.7545513,14.0306626 C15.4383145,12.9420637 16.4755936,11.0781318 16.4755936,9.03604183 C16.4755936,6.97477789 15.4185835,5.09565121 13.7090121,4.01227132 C13.3591369,3.79055035 13.2552473,3.32718006 13.4769683,2.97730482 C13.6986892,2.62742957 14.1620595,2.52354 14.5119348,2.74526097 C16.6511267,4.1008976 17.9755936,6.45550236 17.9755936,9.03604183 C17.9755936,11.59254 16.675804,13.9281885 14.5689562,15.2903231 Z" id="Oval-2-Copy"></path>
            <path d="M16.5871379,17.2903231 C16.2392923,17.5152148 15.7749969,17.415541 15.5501052,17.0676953 C15.3252135,16.7198497 15.4248874,16.2555543 15.772733,16.0306626 C18.1284875,14.507603 19.580077,11.8991786 19.580077,9.04186091 C19.580077,6.15770815 18.1008839,3.52803476 15.7090121,2.01227132 C15.3591369,1.79055035 15.2552473,1.32718006 15.4769683,0.977304817 C15.6986892,0.627429571 16.1620595,0.52354 16.5119348,0.745260966 C19.3334271,2.53328115 21.080077,5.63843262 21.080077,9.04186091 C21.080077,12.4135868 19.365977,15.4937278 16.5871379,17.2903231 Z" id="Oval-2-Copy-2"></path>
            <path d="M2.44539322,13.5452541 C1.28540107,13.5452541 0.27838734,12.6223373 0.27838734,11.4285732 L0.27838734,6.72472712 C0.27838734,5.55150508 1.27124795,4.58293162 2.44558493,4.58293162 L4.52098452,4.58293162 C4.41110235,4.58293162 4.48658539,4.54670694 4.58948066,4.47877277 C4.7770297,4.35494795 5.0272864,4.16650155 5.33538674,3.91754089 C5.86085975,3.49293212 6.48321769,2.9541087 7.45417882,2.09215155 C7.50519352,2.04685674 7.50519352,2.04685674 7.55621453,2.00153057 C7.69006754,1.88260303 8.1462957,1.47669394 8.21369167,1.41678466 C8.58169167,1.08754375 9.03647364,1.07460113 9.45150692,1.26132859 C9.90902565,1.46613222 10.0935974,1.87596489 10.0935974,2.33476478 L10.0935974,15.8183438 C10.0935974,16.2713542 9.91025757,16.6702511 9.4617658,16.8771472 C9.30844181,16.9475065 9.19582806,16.9744898 9.02381845,16.9744898 C8.7264827,16.9744898 8.47334645,16.8547872 8.25968126,16.672371 C6.70067871,15.3405147 4.89263852,13.9135933 4.32372475,13.5452541 L2.44539322,13.5452541 Z M8.55251269,3.12286459 C8.50127325,3.16838481 8.50127325,3.16838481 8.45000193,3.21390746 C5.87992136,5.4954605 5.15289865,6.08293162 4.52098452,6.08293162 L2.44558493,6.08293162 C2.09147471,6.08293162 1.77838734,6.38836032 1.77838734,6.72472712 L1.77838734,11.4285732 C1.77838734,11.7632963 2.08603739,12.0452541 2.44539322,12.0452541 L4.6969643,12.0452541 L4.8524566,12.1209998 C5.30898399,12.3433901 6.94936301,13.613662 8.59359736,14.9903358 L8.59359736,3.08634965 C8.57784249,3.10035517 8.56399962,3.11265852 8.55251269,3.12286459 Z" id="Shape"></path>
        </g>
    </g>
</svg>