<?xml version="1.0" encoding="UTF-8"?>
<svg width="24px" height="24px" viewBox="0 0 24 24" version="1.1" xmlns="http://www.w3.org/2000/svg" xmlns:xlink="http://www.w3.org/1999/xlink">
    <!-- Generator: Sketch 51.2 (57519) - http://www.bohemiancoding.com/sketch -->
    <title>icon / expanded / move-up</title>
    <desc>Created with Sketch.</desc>
    <defs></defs>
    <g id="icon-/-expanded-/-move-up" stroke="none" stroke-width="1" fill="none" fill-rule="evenodd">
        <g id="move-up" transform="translate(12.500000, 12.500000) scale(1, -1) translate(-12.500000, -12.500000) translate(8.000000, 4.000000)" fill="#000000" fill-rule="nonzero">
            <path d="M5,16.3332812 C5,16.7474948 4.66421356,17.0832812 4.25,17.0832812 C3.83578644,17.0832812 3.5,16.7474948 3.5,16.3332812 L3.5,0.66140625 C3.5,0.247192688 3.83578644,-0.08859375 4.25,-0.08859375 C4.66421356,-0.08859375 5,0.247192688 5,0.66140625 L5,16.3332812 Z" id="Shape"></path>
            <path d="M7.7542367,12.4368028 C8.07244437,12.1716297 8.5453679,12.2146228 8.81054096,12.5328305 C9.07571402,12.8510381 9.03272097,13.3239616 8.7145133,13.5891347 L4.7301383,16.9094472 C4.45200384,17.1412259 4.04799616,17.1412259 3.7698617,16.9094472 L-0.2145133,13.5891347 C-0.532720973,13.3239616 -0.57571402,12.8510381 -0.31054096,12.5328305 C-0.0453678989,12.2146228 0.427555627,12.1716297 0.7457633,12.4368028 L4.25,15.357 L7.7542367,12.4368028 Z" id="Shape"></path>
        </g>
    </g>
</svg>