<?xml version="1.0" encoding="UTF-8"?>
<svg width="24px" height="24px" viewBox="0 0 24 24" version="1.1" xmlns="http://www.w3.org/2000/svg" xmlns:xlink="http://www.w3.org/1999/xlink">
    <!-- Generator: Sketch 51.2 (57519) - http://www.bohemiancoding.com/sketch -->
    <title>icon / expanded / noodles</title>
    <desc>Created with Sketch.</desc>
    <defs></defs>
    <g id="icon-/-expanded-/-noodles" stroke="none" stroke-width="1" fill="none" fill-rule="evenodd">
        <g id="noodles" transform="translate(2.000000, 0.000000)" fill="#000000" fill-rule="nonzero">
            <path d="M6.65831256,8.3601488 L2.974811,8.80180909 C2.5635432,8.85112104 2.19016953,8.55769785 2.14085758,8.14643005 C2.09154562,7.73516224 2.38496882,7.36178858 2.79623662,7.31247662 L19.8347128,5.26952424 C20.2459806,5.22021229 20.6193543,5.51363548 20.6686662,5.92490329 C20.7179782,6.33617109 20.424555,6.70954476 20.0132872,6.75885671 L13.3797547,7.55423247 C13.9821291,8.61987649 13.823294,9.60941142 13.1732839,11.1880183 C13.1424136,11.2629823 13.1424136,11.2629823 13.1121504,11.3367862 C12.9234846,11.7979264 12.801659,12.1576194 12.7501099,12.4642857 L18.6428571,12.4642857 C19.0939644,12.4642857 19.4429994,12.8596449 19.3870706,13.3072717 C18.9778387,16.5825599 16.8432276,19.264649 13.9642857,20.487669 L13.9642857,22.2619048 C13.9642857,22.6761183 13.6284993,23.0119048 13.2142857,23.0119048 L6.88095238,23.0119048 C6.46673882,23.0119048 6.13095238,22.6761183 6.13095238,22.2619048 L6.13095238,20.4876744 C3.25171526,19.2647282 1.11743255,16.5828253 0.708167535,13.3072717 C0.652238673,12.8596449 1.00127367,12.4642857 1.45238095,12.4642857 L5.79265077,12.4642857 C5.84937109,11.9543298 6.0267936,11.3942528 6.30211001,10.7218209 C6.3265674,10.6621681 6.3265674,10.6621681 6.35080509,10.6032054 C6.82699531,9.44470913 6.92682905,8.93677209 6.65831256,8.3601488 Z M8.19899691,8.17541722 C8.47014953,9.04221629 8.27801526,9.86012582 7.73817515,11.1734723 C7.71404344,11.2321775 7.71404344,11.2321775 7.69026353,11.290178 C7.49183824,11.7748113 7.36494686,12.1480607 7.31313861,12.4642857 L8.51567147,12.4642857 C8.57223096,11.9645781 8.7441323,11.4181477 9.00972779,10.7688415 C9.04103122,10.6924846 9.04103122,10.6924846 9.07200531,10.6172522 C9.6095654,9.31143873 9.69056497,8.75094927 9.20472956,8.05482756 L8.19899691,8.17541722 Z M10.8187215,7.86130622 C11.2325247,8.81646916 11.0462513,9.76191077 10.4590702,11.1882608 C10.4282682,11.2630762 10.4282682,11.2630762 10.3980705,11.3367362 C10.2094339,11.7978997 10.0876114,12.1576114 10.0360308,12.4642857 L11.229769,12.4642857 C11.2862935,11.9645326 11.4582079,11.4180748 11.7238485,10.7687916 C11.7552222,10.6922797 11.7552222,10.6922797 11.7862654,10.6168969 C12.3843807,9.16432112 12.4173762,8.63413542 11.7398576,7.82095426 L11.6854588,7.75738243 L10.8187215,7.86130622 Z M19.4728714,0.735025442 C19.8715044,0.622488205 20.2858897,0.854414621 20.3984269,1.25304759 C20.5109642,1.65168056 20.2790378,2.06606589 19.8804048,2.17860313 L3.33683336,6.84898408 C2.93820039,6.96152132 2.52381506,6.7295949 2.41127782,6.33096193 C2.29874059,5.93232896 2.530667,5.51794363 2.92929997,5.40540639 L19.4728714,0.735025442 Z" id="Combined-Shape"></path>
        </g>
    </g>
</svg>