<?xml version="1.0" encoding="UTF-8"?>
<svg width="24px" height="24px" viewBox="0 0 24 24" version="1.1" xmlns="http://www.w3.org/2000/svg" xmlns:xlink="http://www.w3.org/1999/xlink">
    <!-- Generator: Sketch 51.2 (57519) - http://www.bohemiancoding.com/sketch -->
    <title>icon / expanded / pin-o</title>
    <desc>Created with Sketch.</desc>
    <defs></defs>
    <g id="icon-/-expanded-/-pin-o" stroke="none" stroke-width="1" fill="none" fill-rule="evenodd">
        <g id="pin-o" transform="translate(1.000000, 1.000000)" fill="#000000" fill-rule="nonzero">
            <g id="pin">
                <path d="M14.3285449,17.2562039 C14.0148727,17.7908227 13.4710452,18.1497897 12.8561653,18.2280851 C12.2412854,18.3063805 11.6248527,18.0951546 11.1880032,17.6569968 L4.34462942,10.8136217 C3.90567876,10.3759806 3.69445286,9.7595479 3.77274826,9.144668 C3.85104367,8.52978811 4.21001068,7.98596061 4.74462942,7.67228841 C6.15169955,6.85440996 7.79056128,6.55330816 9.38366745,6.80840802 L12.5706843,1.79969082 C12.8964598,1.28803029 13.4368371,0.951862454 14.0397937,0.885760161 C14.6427503,0.819657867 15.2431254,1.03076472 15.6719968,1.45966991 L20.5413369,6.32901014 C20.9701346,6.7580885 21.1810193,7.35859105 21.1146564,7.96156006 C21.0482935,8.56452907 20.7118558,9.10479322 20.2001692,9.43023813 L15.1924174,12.6171287 C15.4475146,14.2102714 15.1462751,15.8493875 14.3285449,17.2562039 Z M5.26073362,9.33413982 C5.24115977,9.4878598 5.29396625,9.64196797 5.40449675,9.75216991 L12.2494551,16.5971294 C12.3588654,16.7068671 12.5129735,16.7596736 12.6666935,16.7400997 C12.8204135,16.7205259 12.9563704,16.6307841 13.0332477,16.4997677 C13.7469311,15.2719429 13.9597691,13.8162359 13.6274846,12.4354807 C13.5525226,12.1239882 13.6837039,11.7992744 13.9539975,11.6272619 L19.3949964,8.16465653 C19.5229595,8.08326896 19.6070689,7.94820293 19.6236596,7.79746067 C19.6402503,7.64671842 19.5875292,7.49659278 19.4805032,7.38949675 L14.6113157,2.52030918 C14.5040926,2.41307765 14.3539988,2.36030094 14.2032597,2.37682651 C14.0525205,2.39335209 13.9174262,2.47739405 13.8360994,2.60512527 L10.3735994,8.04679193 C10.2015953,8.31711358 9.87686377,8.44831523 9.56535259,8.37334875 C8.18509255,8.04118336 6.72993432,8.25374969 5.50238645,8.96681815 C5.36945999,9.04535699 5.28024313,9.18092515 5.26073362,9.33413982 Z" id="Shape"></path>
                <path d="M7.76383658,13.1746699 C8.0567298,12.8817767 8.53160353,12.8817767 8.82449675,13.1746699 C9.11738997,13.4675631 9.11738997,13.9424369 8.82449675,14.2353301 L2.15533009,20.9044968 C1.86243687,21.19739 1.38756313,21.19739 1.09466991,20.9044968 C0.801776695,20.6116035 0.801776695,20.1367298 1.09466991,19.8438366 L7.76383658,13.1746699 Z" id="Shape"></path>
            </g>
        </g>
    </g>
</svg>