<?xml version="1.0" encoding="UTF-8"?>
<svg width="24px" height="24px" viewBox="0 0 24 24" version="1.1" xmlns="http://www.w3.org/2000/svg" xmlns:xlink="http://www.w3.org/1999/xlink">
    <!-- Generator: Sketch 51.3 (57544) - http://www.bohemiancoding.com/sketch -->
    <title>icon / expanded / speechbubbles</title>
    <desc>Created with Sketch.</desc>
    <defs></defs>
    <g id="icon-/-expanded-/-speechbubbles" stroke="none" stroke-width="1" fill="none" fill-rule="evenodd">
        <g id="speechbubbles" fill="#000000">
            <path d="M7.12098559,7.14260698 C7.12098559,7.78335565 6.59888138,8.30418767 5.95596956,8.30418767 C5.31305774,8.30418767 4.79155159,7.78335565 4.79155159,7.14260698 C4.79155159,6.5006651 5.31305774,5.98102628 5.95596956,5.98102628 C6.59888138,5.98102628 7.12098559,6.5006651 7.12098559,7.14260698" id="Fill-20"></path>
            <path d="M10.8483192,7.14260698 C10.8483192,7.78335565 10.3268131,8.30418767 9.68330318,8.30418767 C9.04039135,8.30418767 8.51828715,7.78335565 8.51828715,7.14260698 C8.51828715,6.5006651 9.04039135,5.98102628 9.68330318,5.98102628 C10.3268131,5.98102628 10.8483192,6.5006651 10.8483192,7.14260698" id="Fill-22"></path>
            <path d="M14.5751146,7.14260698 C14.5751146,7.78335565 14.0536084,8.30418767 13.4106966,8.30418767 C12.7671867,8.30418767 12.2450825,7.78335565 12.2450825,7.14260698 C12.2450825,6.5006651 12.7671867,5.98102628 13.4106966,5.98102628 C14.0536084,5.98102628 14.5751146,6.5006651 14.5751146,7.14260698" id="Fill-24"></path>
            <path d="M19.3460379,8.12118765 C18.8732564,8.02030422 18.3761311,7.94743544 17.8559938,7.90185547 C17.8617742,7.76605358 17.8619857,7.62791234 17.8566302,7.48741746 C17.7381788,4.39124091 14.3286901,1.88060657 10.0125936,1.88060657 C7.15748236,1.88060657 4.78129485,2.48997077 3.40709763,3.88839918 C2.55956616,4.75011472 2.14100681,5.91619044 2.16956364,7.3959442 C2.19232985,8.57518896 2.13159332,12.0207686 2.02280028,16.6226516 C3.86454516,14.1788758 5.49108768,12.7678176 6.94336251,12.7678176 C7.05697772,12.7678176 7.16821517,12.7754242 7.26731035,12.790307 C7.62635734,12.8396291 7.98318777,12.8789378 8.33591539,12.9081479 C8.17991334,13.3793783 8.08065746,13.8741757 8.04504163,14.3883903 C7.71784203,14.3586214 7.3873114,14.3208426 7.05425165,14.2750712 C7.02290928,14.2703813 6.98541815,14.2678176 6.94336251,14.2678176 C5.88371773,14.2678176 3.94555326,16.3177733 1.83754374,19.491866 C1.42124027,20.1187065 0.444187313,19.8104303 0.463010143,19.0581782 C0.607695585,13.2758416 0.695868774,8.77297589 0.669842985,7.4248919 C0.633825595,5.55854732 1.19318193,4.00022147 2.33744058,2.83681291 C4.06354677,1.08027019 6.7918527,0.380606567 10.0125936,0.380606567 C15.0623211,0.380606567 19.202474,3.4292778 19.3555377,7.43017712 C19.3644708,7.66452578 19.3612778,7.89493705 19.3460379,8.12118765 Z" id="Combined-Shape" fill-rule="nonzero"></path>
            <path d="M16.4909046,9.34432696 C18.9587478,9.34432696 20.9402965,9.91628961 22.1828982,11.180802 C23.0570289,12.0695617 23.4736022,13.2523459 23.4467414,14.6442139 C23.4326256,15.375382 23.4650042,17.4572926 23.5378387,20.619551 L23.6058012,23.5702824 C23.6093852,23.7258894 23.5402991,23.8742902 23.4189168,23.9717207 C23.2035671,24.1445765 22.8888644,24.1101283 22.7160086,23.8947786 L20.868461,21.5930396 C19.8580676,20.3342565 19.1110878,19.7906461 18.6682335,19.7921612 C17.961088,19.8894232 17.2798185,19.9375754 16.6256669,19.9375754 C14.1467553,19.9375754 12.0596211,19.2522101 10.7798655,17.9268732 C9.9090846,17.0236131 9.48676482,15.9025394 9.53503669,14.6361848 C9.65185978,11.5825695 12.7835485,9.34432696 16.4909046,9.34432696 Z M16.4909046,10.844327 C13.475617,10.844327 11.1146896,12.5828355 11.0339481,14.6933215 C11.0011068,15.5548735 11.2743609,16.278569 11.8589188,16.8849309 C12.8100717,17.8699611 14.5001208,18.4375754 16.6256669,18.4375754 C17.2093512,18.4375754 17.8224455,18.3943819 18.4452568,18.3088267 C18.5249966,18.2968401 18.6155773,18.2906461 18.7075715,18.2906461 C19.7368424,18.2906461 20.8257271,19.1435043 22.0382364,20.6540905 C21.9689437,17.6456066 21.9315642,15.4158822 21.9470206,14.6152718 C21.9666088,13.6002546 21.6838711,12.812568 21.1130093,12.2321525 C20.1693776,11.2718817 18.5021475,10.844327 16.4909046,10.844327 Z" id="Fill-17-Copy" fill-rule="nonzero"></path>
            <path d="M20.2616572,14.4363273 L20.3616572,14.4363273 C20.3616572,14.954448 19.9396811,15.3752466 19.4202567,15.3752466 C18.9008988,15.3752466 18.4792882,14.9545142 18.4792882,14.4363273 C18.4792882,13.9175602 18.9006163,13.4974079 19.4202567,13.4974079 C19.9399638,13.4974079 20.3616572,13.9176264 20.3616572,14.4363273 L20.2616572,14.4363273 Z" id="Fill-20" fill-rule="nonzero" transform="translate(19.420473, 14.436327) scale(-1, 1) translate(-19.420473, -14.436327) "></path>
            <path d="M17.5701259,14.4363273 L17.6701259,14.4363273 C17.6701259,14.9545888 17.2484406,15.3752466 16.7287255,15.3752466 C16.2093011,15.3752466 15.787325,14.954448 15.787325,14.4363273 C15.787325,13.9176264 16.2090184,13.4974079 16.7287255,13.4974079 C17.2487232,13.4974079 17.6701259,13.9174857 17.6701259,14.4363273 L17.5701259,14.4363273 Z" id="Fill-22" fill-rule="nonzero" transform="translate(16.728725, 14.436327) scale(-1, 1) translate(-16.728725, -14.436327) "></path>
            <path d="M14.8785515,14.4363273 L14.9785515,14.4363273 C14.9785515,14.9545142 14.5569409,15.3752466 14.037583,15.3752466 C13.5178015,15.3752466 13.0957506,14.9545226 13.0957506,14.4363273 C13.0957506,13.9175518 13.5175186,13.4974079 14.037583,13.4974079 C14.5572234,13.4974079 14.9785515,13.9175602 14.9785515,14.4363273 L14.8785515,14.4363273 Z" id="Fill-24" fill-rule="nonzero" transform="translate(14.037151, 14.436327) scale(-1, 1) translate(-14.037151, -14.436327) "></path>
        </g>
    </g>
</svg>